id;first_name;last_name;email;gender;city
1;Raviv;Trussell;rtrussell0@columbia.edu;Male;Klagen
2;Peria;Abrahart;pabrahart1@discuz.net;Female;Batallas
3;Bettine;Diament;bdiament2@theguardian.com;Female;Ibrā’
4;Rahel;Raffeorty;rraffeorty3@amazon.co.jp;Female;Usuki
5;Titus;Greenway;tgreenway4@guardian.co.uk;Male;Grand Bois
6;Eunice;Keuneke;ekeuneke5@wikia.com;Female;Yidu
7;Paten;Ambridge;pambridge6@istockphoto.com;Male;Västervik
8;Gun;Von Welden;gvonwelden7@indiatimes.com;Male;Krajanpagowan
9;Marianne;Martinho;mmartinho8@mysql.com;Female;Bayonne
10;Nicolis;Rosencrantz;nrosencrantz9@google.com.br;Male;Leles
11;Winston;Lattos;wlattosa@rambler.ru;Male;Tārūt
12;Costa;Schultheiss;cschultheissb@nature.com;Male;Węgorzyno
13;Brynne;Walkington;bwalkingtonc@census.gov;Female;Kadaka
14;Siouxie;Boyack;sboyackd@php.net;Female;Changshou
15;Lonnard;Kield;lkielde@sfgate.com;Male;Phoenix
16;Leanor;Manthroppe;lmanthroppef@wix.com;Female;Cantapoy
17;Rana;Weddeburn - Scrimgeour;rweddeburnscrimgeourg@unc.edu;Female;Novyye Gorki
18;Angelle;Mosby;amosbyh@dropbox.com;Female;Tongqian
19;Lisha;Duprey;ldupreyi@thetimes.co.uk;Female;Kayu Agung
20;Reeta;Suermeier;rsuermeierj@4shared.com;Female;Ngou
21;Winnah;Shilliday;wshillidayk@gov.uk;Female;Skoura
22;Ferdinande;Proback;fprobackl@nih.gov;Female;Xianyan
23;Donalt;Matterdace;dmatterdacem@springer.com;Male;Phichai
24;Lilias;Danher;ldanhern@opera.com;Female;Krajan
25;Barby;Daye;bdayeo@oaic.gov.au;Female;Sibut
26;Nicky;Conti;ncontip@addthis.com;Female;Aix-en-Provence
27;Rem;Bergstrand;rbergstrandq@biglobe.ne.jp;Male;Zepita
28;Tiffie;Lowerson;tlowersonr@marriott.com;Female;Selopuro
29;Bryan;Wight;bwights@reuters.com;Male;Jishui
30;Virgie;Stead;vsteadt@businessweek.com;Female;Baru Timur
31;Goddart;Skillicorn;gskillicornu@smugmug.com;Male;Sayang Lauq
32;Burl;Lechmere;blechmerev@gizmodo.com;Male;Cruzeiro do Oeste
33;Evan;Smallthwaite;esmallthwaitew@ifeng.com;Male;Longhua
34;Berke;Starr;bstarrx@opensource.org;Male;Port Saint John’s
35;Hanny;Hothersall;hhothersally@delicious.com;Female;Bungereng
36;Virginie;Aleshintsev;valeshintsevz@kickstarter.com;Female;Kungsbacka
37;Irene;Wilcinskis;iwilcinskis10@cargocollective.com;Female;Sajan
38;Legra;Burdess;lburdess11@sfgate.com;Female;Chifeng
39;Susie;Midlar;smidlar12@indiatimes.com;Female;Quinta do Sobrado
40;Maxie;Turmel;mturmel13@answers.com;Female;Huazhu
41;Tamqrah;Goard;tgoard14@yelp.com;Female;Yangjiapo
42;Lavinie;Ayce;layce15@slashdot.org;Female;Ntaur Satu
43;Sonny;Paunton;spaunton16@huffingtonpost.com;Male;San Patricio
44;Cori;Waylen;cwaylen17@yandex.ru;Male;Oklahoma City
45;Locke;Augustin;laugustin18@is.gd;Male;Mañazo
46;Trip;Lehr;tlehr19@newsvine.com;Male;Kanchanaburi
47;Auroora;Kenrack;akenrack1a@mysql.com;Female;Kými
48;Lotta;Cast;lcast1b@oakley.com;Female;Malanów
49;Neville;Bosquet;nbosquet1c@yale.edu;Male;Bor Tungge
50;Colin;Warrillow;cwarrillow1d@quantcast.com;Male;Gangbian
51;Brent;Abelwhite;babelwhite1e@blogspot.com;Male;Tangban
52;Aloysia;McFall;amcfall1f@ucoz.ru;Female;Florentino Ameghino
53;Felicia;Gounel;fgounel1g@census.gov;Female;Teculután
54;Devondra;Blair;dblair1h@shinystat.com;Female;Paiisa
55;Bernardine;Jaggard;bjaggard1i@uiuc.edu;Female;Vashkivtsi
56;Marleah;Garlic;mgarlic1j@booking.com;Female;Cajazeiras
57;Hervey;Doddrell;hdoddrell1k@java.com;Male;Pantubig
58;Daven;Pacheco;dpacheco1l@deviantart.com;Male;Guimarães
59;Nicolette;Escalero;nescalero1m@typepad.com;Female;Huaxijie
60;Meghann;Longforth;mlongforth1n@mail.ru;Female;Berbérati
61;Adrian;Benz;abenz1o@howstuffworks.com;Female;Maikawada
62;Morly;Suller;msuller1p@constantcontact.com;Male;Kalutara
63;Ardeen;Emmott;aemmott1q@si.edu;Female;Chyhyryn
64;Reilly;Bracey;rbracey1r@wp.com;Male;Kangle
65;Fern;Bevens;fbevens1s@examiner.com;Female;Pailles
66;Dario;Caro;dcaro1t@wordpress.com;Male;Yulin
67;Radcliffe;Laverack;rlaverack1u@mlb.com;Male;Cibitung
68;Coralie;Lebreton;clebreton1v@quantcast.com;Female;Khayr Kōṯ
69;Isis;Raybould;iraybould1w@hexun.com;Female;Sasnovy Bor
70;Silvanus;Fillan;sfillan1x@360.cn;Male;Louveira
71;Cassey;Parell;cparell1y@sogou.com;Female;Heqing
72;Aron;Vanyushkin;avanyushkin1z@tuttocitta.it;Male;Serra
73;Esmaria;Wimms;ewimms20@w3.org;Female;Ananindeua
74;Natty;MacDonnell;nmacdonnell21@hud.gov;Female;Karawatu
75;Kipp;Flaubert;kflaubert22@cisco.com;Male;Huomachong
76;Lacy;Althorp;lalthorp23@unesco.org;Female;Jakobstad
77;Granthem;Pfeuffer;gpfeuffer24@meetup.com;Male;Nakhon Si Thammarat
78;See;Bramont;sbramont25@hc360.com;Male;Oakland
79;Claiborne;Ducarel;cducarel26@e-recht24.de;Male;Sishiba
80;Sunny;Beuscher;sbeuscher27@wsj.com;Male;Lgota Wielka
81;Emyle;Morrowe;emorrowe28@newyorker.com;Female;Nila Dua
82;Prudy;Dagnan;pdagnan29@redcross.org;Female;Broshniv-Osada
83;Ray;Canellas;rcanellas2a@homestead.com;Female;Puncaksari
84;Zachary;Niesing;zniesing2b@prlog.org;Male;Larache
85;Mabelle;Gaylor;mgaylor2c@moonfruit.com;Female;Lazaro Cardenas
86;Quint;Mc Ilory;qmcilory2d@multiply.com;Male;Liqi
87;Georgetta;Christopher;gchristopher2e@youtu.be;Female;Xagmakajor
88;Jasen;de Amaya;jdeamaya2f@stumbleupon.com;Male;Danglang Hudong
89;Tracey;Iveans;tiveans2g@berkeley.edu;Female;Bungkulan
90;Madelin;Trassler;mtrassler2h@samsung.com;Female;Nawá
91;Amata;Trounce;atrounce2i@bloglines.com;Female;Daiyue
92;Ettie;Mannock;emannock2j@goodreads.com;Female;Bau
93;Alan;Eslemont;aeslemont2k@joomla.org;Male;Tarłów
94;Gregoire;Stanyon;gstanyon2l@goo.gl;Male;Pīrgaaj
95;Stacee;Studeart;sstudeart2m@elpais.com;Female;Lakshmīpur
96;Glen;Gillespey;ggillespey2n@delicious.com;Male;Stettler
97;Bogey;Wiggins;bwiggins2o@usa.gov;Male;Zonghan
98;Beaufort;Camosso;bcamosso2p@cornell.edu;Male;Balud
99;Langston;Scinelli;lscinelli2q@mit.edu;Male;Manorom
100;Axel;Keyme;akeyme2r@myspace.com;Male;Zavoronezhskoye
101;Joeann;Waddington;jwaddington2s@oracle.com;Female;Tambakan
102;Kirbie;Hicklingbottom;khicklingbottom2t@pen.io;Female;Chishui
103;Thea;Chaston;tchaston2u@privacy.gov.au;Female;Emalgolin Mongolzuxiang
104;Katee;Arendsen;karendsen2v@virginia.edu;Female;Sosnovaya Polyana
105;Cull;Adamsky;cadamsky2w@addtoany.com;Male;Ţubarjal
106;Ania;Douch;adouch2x@forbes.com;Female;Klishkivtsi
107;Slade;Ellsbury;sellsbury2y@cocolog-nifty.com;Male;Zhihe
108;Heall;Marrows;hmarrows2z@pcworld.com;Male;Vysokovsk
109;Isiahi;Duthy;iduthy30@macromedia.com;Male;Choushui
110;Ruthie;Brolly;rbrolly31@sun.com;Female;Zaslawye
111;Gusella;Aubery;gaubery32@google.com.br;Female;Outeiro
112;Abner;Eriksson;aeriksson33@hc360.com;Male;Isla
113;Eugene;Olliar;eolliar34@altervista.org;Male;Buenos Aires
114;Johan;Cheeney;jcheeney35@spotify.com;Male;Tomaszów Lubelski
115;Michelina;Pittel;mpittel36@macromedia.com;Female;Dashkawka
116;Lise;Meegan;lmeegan37@cargocollective.com;Female;Yelyzavethradka
117;Corney;Krink;ckrink38@cloudflare.com;Male;Belleville
118;Estrella;Illyes;eillyes39@microsoft.com;Female;Orleans
119;Rosella;Fenney;rfenney3a@paginegialle.it;Female;Lleida
120;Gloria;Risbridge;grisbridge3b@eventbrite.com;Female;Linao
121;Dmitri;Trathan;dtrathan3c@businessinsider.com;Male;Nancheng
122;Whitaker;Frowing;wfrowing3d@bbb.org;Male;Balugo
123;Davy;Hallworth;dhallworth3e@ted.com;Male;Uddevalla
124;Thomasin;Olyfant;tolyfant3f@spiegel.de;Female;Naschel
125;Knox;Vass;kvass3g@yellowpages.com;Male;Liuji
126;Dwain;Pavese;dpavese3h@edublogs.org;Male;Paccho
127;Darcy;Casone;dcasone3i@opensource.org;Male;Tromsø
128;Vincenty;Crighton;vcrighton3j@sphinn.com;Male;Severo-Zadonsk
129;Micheal;Brixham;mbrixham3k@stumbleupon.com;Male;Senggreng
130;Lauretta;Farndale;lfarndale3l@adobe.com;Female;Fuzihe
131;Pedro;Strut;pstrut3m@seattletimes.com;Male;Meghrashen
132;Mary;Shepton;mshepton3n@free.fr;Female;Vila Nova de Gaia
133;Bern;Poncet;bponcet3o@house.gov;Male;Peredovaya
134;Erskine;New;enew3p@instagram.com;Male;Hannover
135;Sebastien;Hamlyn;shamlyn3q@w3.org;Male;Hikone
136;Maddie;Shambrooke;mshambrooke3r@squarespace.com;Female;Birendranagar
137;Nissy;While;nwhile3s@merriam-webster.com;Female;Tilcara
138;Laurice;Ord;lord3t@kickstarter.com;Female;Fort Dauphin
139;Tessi;Joscelin;tjoscelin3u@amazon.de;Female;Kara
140;Micheal;Harradine;mharradine3v@smh.com.au;Male;Jaruco
141;Chris;Gwillim;cgwillim3w@topsy.com;Female;Simões Filho
142;Deane;McMillan;dmcmillan3x@xinhuanet.com;Female;Kool Tengah
143;Packston;Parkins;pparkins3y@printfriendly.com;Male;Santa Bárbara de Padrões
144;Gennie;Cutchey;gcutchey3z@businessweek.com;Female;Tingqian
145;Alexis;Height;aheight40@biblegateway.com;Male;Fort Worth
146;Ave;Dadley;adadley41@boston.com;Male;Donggou
147;Diane;Maron;dmaron42@bandcamp.com;Female;Bayasgalant
148;Vic;Stairmond;vstairmond43@army.mil;Male;Budapest
149;Carson;Goodram;cgoodram44@tumblr.com;Male;Kōriyama
150;Ewell;Leeming;eleeming45@usa.gov;Male;Banjar Bali
151;Cullen;Scawton;cscawton46@cafepress.com;Male;Serov
152;Jilly;Isaacson;jisaacson47@washington.edu;Female;Kamyanyuki
153;Pierette;Batson;pbatson48@seattletimes.com;Female;Borovichi
154;Jillene;Penhall;jpenhall49@nps.gov;Female;Pananaw
155;Elmore;Spaughton;espaughton4a@com.com;Male;Qingyun
156;Alia;Odlin;aodlin4b@networkadvertising.org;Female;Tul’chyn
157;Karim;Spilsted;kspilsted4c@dell.com;Male;Créteil
158;Hannie;Hackinge;hhackinge4d@t.co;Female;Póvoa de Santo António
159;Galvan;Bergstram;gbergstram4e@geocities.com;Male;Wangjing
160;Tiphanie;Jent;tjent4f@webnode.com;Female;Wuyun
161;Dot;MacNeice;dmacneice4g@comsenz.com;Female;Chonchi
162;Curt;Scholte;cscholte4h@gnu.org;Male;Bago City
163;Chantal;Cocklin;ccocklin4i@pbs.org;Female;Yujia
164;Theodosia;Presdie;tpresdie4j@about.me;Female;Daishan
165;Coleman;Pawlyn;cpawlyn4k@behance.net;Male;Panambi
166;Orlan;Regardsoe;oregardsoe4l@dedecms.com;Male;Paris 13
167;Sky;Beauvais;sbeauvais4m@topsy.com;Male;Fort-de-France
168;Rianon;Chessman;rchessman4n@cdbaby.com;Female;Sharjah
169;Doralin;Piner;dpiner4o@washingtonpost.com;Female;Izborsk
170;Rupert;Gemlett;rgemlett4p@yellowbook.com;Male;Vargön
171;Alane;Rockwell;arockwell4q@booking.com;Female;Louny
172;Alfonso;Osgarby;aosgarby4r@opera.com;Male;Kota Kinabalu
173;Del;Mirrlees;dmirrlees4s@macromedia.com;Male;Luoluopu
174;Inigo;Bennit;ibennit4t@google.com.br;Male;Gò Quao
175;Bridgette;Elsmore;belsmore4u@comsenz.com;Female;Duwe
176;Grissel;Dradey;gdradey4v@noaa.gov;Female;Amiens
177;Regina;Meaney;rmeaney4w@posterous.com;Female;Le Havre
178;Petr;Leng;pleng4x@walmart.com;Male;Bastan
179;Merci;Gaitskill;mgaitskill4y@oakley.com;Female;Leudelange
180;Osborne;Jull;ojull4z@hatena.ne.jp;Male;Aldeia do Bispo
181;Mireielle;Neil;mneil50@mediafire.com;Female;Guadalupe
182;Rasia;Anan;ranan51@godaddy.com;Female;Pyongyang
183;Ingar;Bengall;ibengall52@macromedia.com;Male;Isahaya
184;Sigmund;Garlick;sgarlick53@npr.org;Male;Dawu
185;Oralle;Laxton;olaxton54@cisco.com;Female;Jeong
186;Jacob;Graybeal;jgraybeal55@cafepress.com;Male;Dante Delgado
187;Cass;Bartelot;cbartelot56@bbb.org;Male;Luleå
188;Rosy;Ravel;rravel57@vkontakte.ru;Female;Huangdao
189;Genvieve;Chinnery;gchinnery58@furl.net;Female;Banān
190;Ofelia;Obeney;oobeney59@google.cn;Female;Los Aquijes
191;Kennedy;Caplin;kcaplin5a@about.me;Male;Minle
192;Rafaelita;Tolchard;rtolchard5b@sciencedaily.com;Female;Hadyach
193;Britteny;Tremmel;btremmel5c@admin.ch;Female;Volochys’k
194;Felix;Schiesterl;fschiesterl5d@blogtalkradio.com;Male;Dadap
195;Ruthanne;Mathon;rmathon5e@netscape.com;Female;Luklukan
196;Oralle;Brim;obrim5f@wiley.com;Female;Miejsce Piastowe
197;Marybeth;Badger;mbadger5g@vimeo.com;Female;Dungloe
198;Jarred;Tankus;jtankus5h@thetimes.co.uk;Male;Cotorra
199;Torry;Pavett;tpavett5i@yolasite.com;Male;Xingdian
200;Ravid;Bende;rbende5j@csmonitor.com;Male;Wobulenzi
201;Whit;Steger;wsteger5k@flavors.me;Male;Kukichūō
202;Syd;Hartup;shartup5l@state.tx.us;Male;Ami
203;Chiarra;Clewes;cclewes5m@vkontakte.ru;Female;Marialva
204;Walther;Chapier;wchapier5n@tiny.cc;Male;Chanthaburi
205;Mario;Codling;mcodling5o@answers.com;Male;Reriz
206;Kalina;Leile;kleile5p@ameblo.jp;Female;Zhangcun
207;Erik;Aikin;eaikin5q@tamu.edu;Male;Maganha
208;Dene;Eagles;deagles5r@cnet.com;Male;Tianqian
209;Lonnie;Toynbee;ltoynbee5s@msu.edu;Female;Daxing
210;Lizzie;Nassie;lnassie5t@marriott.com;Female;Fussa
211;Hazel;Nutkins;hnutkins5u@tamu.edu;Male;Kinnula
212;Leontyne;Tolworthy;ltolworthy5v@histats.com;Female;Okinawa
213;Rickard;Tapsfield;rtapsfield5w@sun.com;Male;Maceo
214;Betta;Boykett;bboykett5x@army.mil;Female;Kezilei
215;Brendon;Ciementini;bciementini5y@house.gov;Male;Changmao
216;Rozalie;Wellbank;rwellbank5z@myspace.com;Female;Bardo
217;Jennine;Pudsall;jpudsall60@sciencedaily.com;Female;Zhishan
218;Ulric;Cuffe;ucuffe61@nih.gov;Male;Igreja
219;Kinsley;Kopecka;kkopecka62@prnewswire.com;Male;Kang
220;Winne;Mercik;wmercik63@sphinn.com;Female;Radomin
221;Morgan;Axel;maxel64@discuz.net;Female;Al Funayţīs
222;Gerek;Strahan;gstrahan65@rakuten.co.jp;Male;Danghara
223;Petronia;Reveland;preveland66@hatena.ne.jp;Female;Kastrat
224;Trisha;Morecombe;tmorecombe67@shareasale.com;Female;Dongyong
225;Bondon;Schultz;bschultz68@yandex.ru;Male;Bebae
226;Francklyn;Fenn;ffenn69@newyorker.com;Male;Ludwigshafen am Rhein
227;Jennette;Broadway;jbroadway6a@washington.edu;Female;Vespasiano
228;Toinette;Yalden;tyalden6b@bloomberg.com;Female;Elaiochóri
229;Gerik;Ahrens;gahrens6c@nature.com;Male;Mauhao
230;Brew;Shevlan;bshevlan6d@netvibes.com;Male;Port Harcourt
231;Flemming;Dronsfield;fdronsfield6e@topsy.com;Male;Bieto
232;Abdel;MacCaughey;amaccaughey6f@google.ca;Male;Jūrat ash Sham‘ah
233;Donalt;Dyshart;ddyshart6g@nhs.uk;Male;Bosanski Šamac
234;Samara;Swalwell;sswalwell6h@vkontakte.ru;Female;Dayr Dibwān
235;Dena;Fisher;dfisher6i@paginegialle.it;Female;El Triunfo de la Cruz
236;Jeromy;Alesio;jalesio6j@bbc.co.uk;Male;Chamlykskaya
237;Albertine;Rawood;arawood6k@bigcartel.com;Female;Plast
238;Wald;Querree;wquerree6l@etsy.com;Male;Zruč nad Sázavou
239;Sibylla;Sarfat;ssarfat6m@telegraph.co.uk;Female;Santa Lucia
240;Lynna;Harrap;lharrap6n@army.mil;Female;Awjilah
241;Xylia;Aggett;xaggett6o@google.ru;Female;Pandan
242;Kristofer;Goch;kgoch6p@sitemeter.com;Male;Handan
243;Jeni;Dirand;jdirand6q@free.fr;Female;Naushki
244;Stacee;Splevin;ssplevin6r@biblegateway.com;Female;Trambalan
245;Prue;Yerrell;pyerrell6s@bizjournals.com;Female;Sirindhorn
246;Van;Wain;vwain6t@harvard.edu;Male;Pontevedra
247;Tabitha;McWhan;tmcwhan6u@lycos.com;Female;Qingjiang
248;Loy;Hatrick;lhatrick6v@usa.gov;Male;Horodnya
249;Wyatan;Thomton;wthomton6w@dropbox.com;Male;Uto
250;Horatius;Ivetts;hivetts6x@tamu.edu;Male;Murganhal
251;Adoree;Pinke;apinke6y@ca.gov;Female;Vicente Guerrero
252;Errol;Matijevic;ematijevic6z@w3.org;Male;Wenchun
253;Bruce;O'Dowd;bodowd70@cocolog-nifty.com;Male;Aleksandrovskiy Zavod
254;Jason;Viegas;jviegas71@nbcnews.com;Male;Buenaventura
255;Moselle;Ludy;mludy72@hhs.gov;Female;Lyakhovtsy
256;Sloane;Poll;spoll73@yolasite.com;Male;Wolfsberg
257;Bengt;Dobrowlski;bdobrowlski74@si.edu;Male;Ngetkib
258;Caron;Taillant;ctaillant75@a8.net;Female;Pukë
259;Rosemarie;Bazylets;rbazylets76@adobe.com;Female;La Virtud
260;Neilla;Ruggles;nruggles77@biglobe.ne.jp;Female;Mata Grande
261;Shamus;Cocke;scocke78@t-online.de;Male;Osório
262;Ara;Maylott;amaylott79@hud.gov;Male;Bedayutalang
263;Grace;Camilio;gcamilio7a@is.gd;Female;Kermānshāh
264;Joshuah;Mesnard;jmesnard7b@webmd.com;Male;Giyon
265;Dionisio;Eiler;deiler7c@photobucket.com;Male;Watublapi
266;Dario;Brundall;dbrundall7d@bbc.co.uk;Male;Donabate
267;Orrin;Reolfi;oreolfi7e@themeforest.net;Male;Blaye
268;Vere;Iveans;viveans7f@comsenz.com;Female;Milton
269;Carolee;Postlethwaite;cpostlethwaite7g@hhs.gov;Female;Italó
270;Kacey;Goforth;kgoforth7h@creativecommons.org;Female;Rumyantsevo
271;Lammond;Dalziell;ldalziell7i@jugem.jp;Male;Āgaro
272;Terra;D'Cruze;tdcruze7j@ftc.gov;Female;Shibata
273;Joshia;Last;jlast7k@noaa.gov;Male;San Matías
274;Shepard;Coyle;scoyle7l@umich.edu;Male;Semey
275;Timmy;Healeas;thealeas7m@tripod.com;Male;Zhenziliang
276;Daisey;Matthiesen;dmatthiesen7n@apple.com;Female;Pavliš
277;Moishe;D'Onisi;mdonisi7o@alexa.com;Male;Colcabamba
278;Reinaldos;Peracco;rperacco7p@mashable.com;Male;Grazhdanka
279;Ulick;Soame;usoame7q@gizmodo.com;Male;Kota Kinabalu
280;Carroll;Shotton;cshotton7r@eventbrite.com;Female;Zheleznodorozhnyy
281;Riccardo;Parkhouse;rparkhouse7s@spiegel.de;Male;Kurumoch
282;Doralia;Barthrop;dbarthrop7t@pagesperso-orange.fr;Female;Griboyedov
283;Wainwright;Belding;wbelding7u@sourceforge.net;Male;Sibubuhan
284;Alex;Paulig;apaulig7v@psu.edu;Male;Picoto
285;Tomas;Yannoni;tyannoni7w@wp.com;Male;São João das Lampas
286;Carmelita;Ravillas;cravillas7x@posterous.com;Female;Chengdong
287;Barnabe;McQuade;bmcquade7y@hhs.gov;Male;Cobh
288;Hans;Ledner;hledner7z@twitter.com;Male;Blois
289;Derrik;Castillo;dcastillo80@sakura.ne.jp;Male;Baikui
290;Abrahan;Beckles;abeckles81@sina.com.cn;Male;Jinshan
291;Anthia;Lovitt;alovitt82@google.com.au;Female;Liuji
292;Murielle;Tumioto;mtumioto83@google.cn;Female;Bohorodchany
293;Jourdan;Donhardt;jdonhardt84@go.com;Female;Delft
294;Ericha;Dicks;edicks85@hhs.gov;Female;Kananya
295;Laurent;Conor;lconor86@bbb.org;Male;Carlos Tejedor
296;D'arcy;Castilla;dcastilla87@nymag.com;Male;Sarykemer
297;Alyosha;Kenafaque;akenafaque88@latimes.com;Male;Longtang
298;Jim;Plascott;jplascott89@wufoo.com;Male;Pingli
299;Corri;Gillion;cgillion8a@nationalgeographic.com;Female;Neochóri
300;Shirlee;Ragdale;sragdale8b@epa.gov;Female;Kalianyar Selatan
301;Nollie;Hutson;nhutson8c@clickbank.net;Male;Salamrejo
302;Tadd;Heales;theales8d@youtu.be;Male;Samsan
303;Jimmy;Rosoni;jrosoni8e@desdev.cn;Male;Phitsanulok
304;Daniella;Sheffield;dsheffield8f@booking.com;Female;Trondheim
305;Devi;Moizer;dmoizer8g@paypal.com;Female;Vigo
306;Dolf;Cansdale;dcansdale8h@amazon.com;Male;Tando Jām
307;Kerwinn;Josupeit;kjosupeit8i@patch.com;Male;Krzyżowice
308;Ives;Eddisforth;ieddisforth8j@twitter.com;Male;Cikalong
309;Cesaro;Yearne;cyearne8k@webeden.co.uk;Male;Stockholm
310;Sullivan;Thorold;sthorold8l@bloglines.com;Male;Newton
311;Abram;Simo;asimo8m@nps.gov;Male;Huangshi
312;Barnaby;Zottoli;bzottoli8n@upenn.edu;Male;Alderetes
313;Parker;Willacot;pwillacot8o@163.com;Male;Kigali
314;Magdalen;Dumbreck;mdumbreck8p@buzzfeed.com;Female;Gunungangka
315;Sal;Curley;scurley8q@angelfire.com;Male;Qijiazuo
316;Bennett;Rapp;brapp8r@51.la;Male;Belajen
317;Winonah;Garci;wgarci8s@studiopress.com;Female;Yuncao
318;Meier;Goudy;mgoudy8t@weebly.com;Male;Hengli
319;Sigismund;Verzey;sverzey8u@mapquest.com;Male;Manadas
320;Lauraine;Badrick;lbadrick8v@addthis.com;Female;Wola Rębkowska
321;Nicoline;Diment;ndiment8w@gnu.org;Female;Chengtou
322;Forster;Gonzalez;fgonzalez8x@storify.com;Male;Tenri
323;Phillipp;Lerway;plerway8y@narod.ru;Male;Nagahama
324;Rochette;Antoniou;rantoniou8z@stanford.edu;Female;Rantaupanjangkiri
325;Marsha;Snell;msnell90@usa.gov;Female;Woken
326;Jessie;De Vile;jdevile91@123-reg.co.uk;Male;Sotomayor
327;Gladys;Hanson;ghanson92@livejournal.com;Female;Molodizhne
328;Hobie;Ondra;hondra93@tripadvisor.com;Male;Wangge’ertang
329;Laurie;Leavy;lleavy94@craigslist.org;Female;Verkhnyachka
330;Mayer;Mantione;mmantione95@oakley.com;Male;Strawczyn
331;Thatch;Charteris;tcharteris96@ucoz.ru;Male;Sv. Anton
332;Rockwell;Uttridge;ruttridge97@fda.gov;Male;Janja
333;Honey;Witz;hwitz98@dedecms.com;Female;Ghurayd Gharamē
334;Heall;MacKeogh;hmackeogh99@t.co;Male;Turku
335;Gareth;Dalli;gdalli9a@netscape.com;Male;Hiratachō
336;Yehudit;Theyer;ytheyer9b@home.pl;Male;Ḩājī Khēl
337;Ermengarde;Fratczak;efratczak9c@salon.com;Female;Ţawr al Bāḩah
338;Orelie;Togwell;otogwell9d@ibm.com;Female;Chengtang
339;Lawton;Paggitt;lpaggitt9e@redcross.org;Male;Kalodu
340;Felicle;Roddell;froddell9f@webmd.com;Female;Bendoroto
341;Gladi;Awin;gawin9g@simplemachines.org;Female;Al Jarrāḩī
342;Eugenie;Normanell;enormanell9h@accuweather.com;Female;Buri
343;Mellisent;Lowther;mlowther9i@who.int;Female;Vanino
344;Morganne;Braun;mbraun9j@indiegogo.com;Female;Abbeville
345;Daisi;Huccaby;dhuccaby9k@smugmug.com;Female;Fucheng
346;Stormy;Semble;ssemble9l@va.gov;Female;Mae Charim
347;Brantley;Sheehy;bsheehy9m@constantcontact.com;Male;Khisarya
348;Claire;Van Castele;cvancastele9n@example.com;Male;Twante
349;Gayler;Duny;gduny9o@wiley.com;Male;Pishaj
350;Dani;Botly;dbotly9p@whitehouse.gov;Male;Bella Vista
351;Eva;Dillow;edillow9q@state.gov;Female;Cipeucang
352;Glennis;Wrighton;gwrighton9r@howstuffworks.com;Female;Gushui
353;Vern;Parsall;vparsall9s@a8.net;Male;Il’inskiy
354;Kin;Rudinger;krudinger9t@posterous.com;Male;Savski Venac
355;Ronalda;Sly;rsly9u@flavors.me;Female;Goranboy
356;Delainey;Belk;dbelk9v@redcross.org;Male;Las Junturas
357;Randal;Fullbrook;rfullbrook9w@aboutads.info;Male;Pringgoboyo
358;Haily;De Hoogh;hdehoogh9x@google.ru;Male;Ampanihy
359;Almeria;Geerdts;ageerdts9y@admin.ch;Female;West Palm Beach
360;Jefferey;Dupey;jdupey9z@webmd.com;Male;Kyustendil
361;Johannah;Scanlan;jscanlana0@bloglines.com;Female;Gaio
362;Morna;Hatcliffe;mhatcliffea1@ustream.tv;Female;Ciudad Choluteca
363;Egor;Cater;ecatera2@gmpg.org;Male;Zhongxinqiao
364;Casper;Krug;ckruga3@godaddy.com;Male;Pohonsirih
365;Ichabod;Salliss;isallissa4@vkontakte.ru;Male;Sarirejo Satu
366;Allina;Tollet;atolleta5@flickr.com;Female;Cabo de Vila
367;Shanon;Meacher;smeachera6@xrea.com;Female;Bilshivtsi
368;Nicolai;Hartley;nhartleya7@google.com.au;Male;Zawichost
369;Lorilyn;Gerhartz;lgerhartza8@over-blog.com;Female;Dongbian
370;Petra;Bail;pbaila9@latimes.com;Female;Jinping
371;Pancho;Girardini;pgirardiniaa@imdb.com;Male;Carpalho
372;Ives;Greendale;igreendaleab@mtv.com;Male;Gangtun
373;Evelina;Gavagan;egavaganac@dyndns.org;Female;Ko Pha Ngan
374;Maribel;Adin;madinad@discuz.net;Female;Huatai
375;Carny;Roch;crochae@samsung.com;Male;Varaždin
376;Danya;Kembrey;dkembreyaf@google.com.br;Female;Põltsamaa
377;Ray;Klishin;rklishinag@hibu.com;Female;Quiruvilca
378;Iago;Lempel;ilempelah@latimes.com;Male;Jiangpu
379;Holmes;Imos;himosai@hhs.gov;Male;Zhenchuan
380;Benoite;Jerschke;bjerschkeaj@themeforest.net;Female;Kalāt-e Nāderī
381;Alejandrina;Pinkstone;apinkstoneak@vkontakte.ru;Female;Bayt ‘Adhāqah
382;Whitney;Martin;wmartinal@reddit.com;Female;Bagnères-de-Bigorre
383;Rollie;Jedrzaszkiewicz;rjedrzaszkiewiczam@symantec.com;Male;San Lorenzo
384;Giselbert;Denham;gdenhaman@eepurl.com;Male;Säffle
385;Shell;Stancer;sstancerao@berkeley.edu;Female;Chiang Rai
386;Penn;Southworth;psouthworthap@cdc.gov;Male;Seversk
387;Lucienne;Holley;lholleyaq@purevolume.com;Female;Zhamog
388;Galina;Simanek;gsimanekar@dion.ne.jp;Female;Bradenton
389;Pieter;Feige;pfeigeas@vimeo.com;Male;Birātnagar
390;Mikael;Cantillion;mcantillionat@mapquest.com;Male;Magong
391;Joellen;Berr;jberrau@edublogs.org;Female;Pamanukan
392;Hillier;Pearl;hpearlav@blinklist.com;Male;Kista
393;Zara;Aldham;zaldhamaw@geocities.jp;Female;Xinlong
394;George;Rennock;grennockax@meetup.com;Male;Libušín
395;Pail;Lower;ploweray@histats.com;Male;Nerokoúros
396;Eadie;Rosenberger;erosenbergeraz@theguardian.com;Female;Besteiros
397;Gifford;Bowery;gboweryb0@addthis.com;Male;Persen
398;Kris;Teaze;kteazeb1@mediafire.com;Female;El Sombrero
399;Stern;Pinks;spinksb2@senate.gov;Male;Horvati
400;Zia;Nollet;znolletb3@tripadvisor.com;Female;Všenory
401;Yvette;Kitt;ykittb4@nps.gov;Female;Aco
402;Werner;Pietasch;wpietaschb5@scribd.com;Male;Dzüünbulag
403;Livvyy;Tebald;ltebaldb6@amazonaws.com;Female;Luotang
404;Davita;Giordano;dgiordanob7@sbwire.com;Female;Togur
405;Earvin;Klug;eklugb8@salon.com;Male;El Retiro
406;Elladine;Shankle;eshankleb9@thetimes.co.uk;Female;Palue
407;Noel;Fernanando;nfernanandoba@alexa.com;Female;Sizhou
408;Alissa;Ferrarin;aferrarinbb@yellowpages.com;Female;Paine
409;Derward;Aslett;daslettbc@amazon.de;Male;Ash Shuqayrah
410;Floyd;Bedding;fbeddingbd@amazon.com;Male;Minien East
411;Almeria;Hurling;ahurlingbe@deliciousdays.com;Female;Kurzętnik
412;Carilyn;Scourge;cscourgebf@woothemes.com;Female;Manfalūţ
413;Sandye;Muldowney;smuldowneybg@cdbaby.com;Female;Tambovka
414;Dorolice;Webling;dweblingbh@cdbaby.com;Female;Luleå
415;Torre;Trowler;ttrowlerbi@unesco.org;Male;Hanjia
416;Arnie;Kyncl;akynclbj@walmart.com;Male;Akankpa
417;Twyla;Arbuckel;tarbuckelbk@last.fm;Female;La Fortuna
418;Anders;Voysey;avoyseybl@vinaora.com;Male;La Rochelle
419;Matty;Hilldrop;mhilldropbm@google.com.au;Male;Kirovsk
420;Lenora;Donoghue;ldonoghuebn@dmoz.org;Female;Yihe
421;Mehetabel;Prandoni;mprandonibo@netvibes.com;Female;Krasnodon
422;Orlan;Biford;obifordbp@arstechnica.com;Male;Cali
423;Reggi;Vardy;rvardybq@netvibes.com;Female;Liuzhuang
424;Ninnetta;Barthelet;nbartheletbr@usnews.com;Female;Yujia
425;Claresta;Fagan;cfaganbs@statcounter.com;Female;Xiaojiang
426;Leesa;Elster;lelsterbt@cbslocal.com;Female;Turmi
427;Mirilla;Selby;mselbybu@altervista.org;Female;Maintang
428;Ram;Andrea;randreabv@themeforest.net;Male;Waco
429;Esme;Gosland;egoslandbw@newyorker.com;Female;Kol’chugino
430;Clarisse;Greve;cgrevebx@soup.io;Female;Shen’ao
431;Eugenia;Gosalvez;egosalvezby@china.com.cn;Female;Foz Giraldo
432;Torrance;Wedderburn;twedderburnbz@example.com;Male;Fuxin
433;Nonah;Bortolussi;nbortolussic0@addthis.com;Female;Sibulan
434;Cristian;Pfleger;cpflegerc1@meetup.com;Male;Strawberry Hills
435;Aggi;Okenden;aokendenc2@usgs.gov;Female;Tim
436;Tricia;Bassindale;tbassindalec3@hao123.com;Female;Taipingzhuang
437;Darcy;Wither;dwitherc4@paginegialle.it;Female;Paris 15
438;Bren;Jewel;bjewelc5@unicef.org;Female;Campoalegre
439;Hildegarde;Freckingham;hfreckinghamc6@admin.ch;Female;Vakhtan
440;Krystyna;Ambrodi;kambrodic7@shareasale.com;Female;Linköping
441;Gaelan;Clemo;gclemoc8@dion.ne.jp;Male;Lubei
442;Katy;Schanke;kschankec9@google.ru;Female;Orivesi
443;Carling;Ricardo;cricardoca@baidu.com;Male;Yunxi
444;Colline;Bert;cbertcb@theatlantic.com;Female;Panevėžys
445;Ravid;Potes;rpotescc@typepad.com;Male;Şaydnāyā
446;Gene;Latham;glathamcd@gravatar.com;Male;Tefé
447;My;Wincott;mwincottce@google.nl;Male;Pregradnoye
448;Erinna;Lornsen;elornsencf@chronoengine.com;Female;Shinjō
449;Davide;Keitch;dkeitchcg@so-net.ne.jp;Male;Sugihwaras
450;George;O'Grady;gogradych@usatoday.com;Female;Buenavista
451;Georas;Chastanet;gchastanetci@howstuffworks.com;Male;Huozhuangzi
452;Pauline;Tearney;ptearneycj@utexas.edu;Female;Stockholm
453;Niki;Berrecloth;nberreclothck@issuu.com;Female;San José
454;Karry;Trigg;ktriggcl@cdbaby.com;Female;Liuzhi
455;Renell;Currin;rcurrincm@elpais.com;Female;Elimäki
456;Basile;Denys;bdenyscn@europa.eu;Male;Shisandaogou
457;Paulo;MacPadene;pmacpadeneco@chron.com;Male;Bella Vista
458;Torrence;Lowsely;tlowselycp@google.pl;Male;Karangwungu Lor
459;Yale;Stockle;ystocklecq@bigcartel.com;Male;Karangasem
460;Giffard;Franzel;gfranzelcr@ycombinator.com;Male;Guashe
461;Irv;Anthona;ianthonacs@example.com;Male;Dalubian
462;Vernor;Antrobus;vantrobusct@weibo.com;Male;Lelekovice
463;Thedrick;Bagenal;tbagenalcu@sbwire.com;Male;Raffingora
464;Brunhilda;McGilbon;bmcgilboncv@a8.net;Female;Xin’an
465;Leonore;Chipping;lchippingcw@exblog.jp;Female;Nakhchivan
466;Neila;Firks;nfirkscx@amazonaws.com;Female;Marte
467;Rafe;Marcos;rmarcoscy@wikia.com;Male;Yepocapa
468;Andrei;Speak;aspeakcz@nsw.gov.au;Female;Stupari
469;Rodolph;Drivers;rdriversd0@blogger.com;Male;Kendung Timur
470;Misty;Layne;mlayned1@ucla.edu;Female;Ribeira Seca
471;Quillan;Tourner;qtournerd2@npr.org;Male;Tabivere
472;Luce;Brabon;lbrabond3@lycos.com;Female;Senj
473;Lorena;Delamaine;ldelamained4@businessweek.com;Female;Arhust
474;Josephina;Walkden;jwalkdend5@quantcast.com;Female;Santa Quitéria
475;Kenna;Tasseler;ktasselerd6@altervista.org;Female;Paris 07
476;Devinne;O'Lagen;dolagend7@dmoz.org;Female;Chuzhou
477;Iain;Didsbury;ididsburyd8@jiathis.com;Male;Ubajami
478;Gordan;Setchell;gsetchelld9@webs.com;Male;Escola
479;Stanley;Batchan;sbatchanda@jimdo.com;Male;城郊
480;Brietta;Heskey;bheskeydb@army.mil;Female;Eira da Pedra
481;Lil;Ferroni;lferronidc@bandcamp.com;Female;Bebae
482;Amy;Lynn;alynndd@yandex.ru;Female;Abomsa
483;Alison;Kisby;akisbyde@wordpress.org;Female;Meruge
484;Gabriel;Beisley;gbeisleydf@biglobe.ne.jp;Female;Banjar Teguan
485;Gerri;Czyz;gczyzdg@posterous.com;Female;Guradog
486;Riley;Manueau;rmanueaudh@wp.com;Male;Haodian
487;Emanuel;Dahmke;edahmkedi@list-manage.com;Male;Qianguo
488;Jehu;Castagne;jcastagnedj@networkadvertising.org;Male;Katsikás
489;Luz;Berkowitz;lberkowitzdk@eventbrite.com;Female;Rawasan
490;Maxy;Baselli;mbasellidl@cpanel.net;Male;Rueil-Malmaison
491;Randell;McDougle;rmcdougledm@eepurl.com;Male;Catamayo
492;Lou;Whickman;lwhickmandn@cisco.com;Female;Bełk
493;Alanna;Bogue;aboguedo@umn.edu;Female;Veinticinco de Mayo
494;Alvis;Tire;atiredp@delicious.com;Male;Shënmëri
495;Izabel;Allsup;iallsupdq@aol.com;Female;Larvik
496;Minda;Absolem;mabsolemdr@linkedin.com;Female;Malāyer
497;Reyna;MacCawley;rmaccawleyds@tiny.cc;Female;Mount Pearl
498;Pierette;Bridywater;pbridywaterdt@latimes.com;Female;Canchayllo
499;Hildy;Casolla;hcasolladu@clickbank.net;Female;Al Ghuwayrīyah
500;Isabel;Apthorpe;iapthorpedv@wikispaces.com;Female;Quebrada Canoa
501;Inglebert;Petzold;ipetzolddw@china.com.cn;Male;Mentougou
502;Jere;Pemberton;jpembertondx@nih.gov;Female;Quzhou
503;Cleavland;Syson;csysondy@independent.co.uk;Male;Bergen
504;Chad;Rosenblatt;crosenblattdz@yandex.ru;Female;Peza e Madhe
505;Emiline;Vines;evinese0@sitemeter.com;Female;Buenaventura
506;Issy;Dimitriev;idimitrieve1@quantcast.com;Female;Pira
507;Broderic;Lombardo;blombardoe2@businesswire.com;Male;Vlycháda
508;Tildi;Hasling;thaslinge3@blog.com;Female;Žiželice
509;Berke;Holttom;bholttome4@pcworld.com;Male;Bằng Lũng
510;Tiertza;Kitchenman;tkitchenmane5@eepurl.com;Female;Yanshan
511;Morry;Poulsom;mpoulsome6@miitbeian.gov.cn;Male;Isla
512;Addie;Beddie;abeddiee7@taobao.com;Male;Mendenrejo
513;Jaimie;Ashingden;jashingdene8@goo.ne.jp;Male;Huangshi
514;Huntlee;Prandy;hprandye9@youtube.com;Male;Saint-Lô
515;Colline;Varvell;cvarvellea@icq.com;Female;Morocelí
516;Zaccaria;Mallabon;zmallaboneb@dropbox.com;Male;Wenquan
517;Tom;McMains;tmcmainsec@google.nl;Male;Cerro Azul
518;Teddie;Proschek;tproscheked@theatlantic.com;Male;Baykalovo
519;Duff;Neve;dneveee@hhs.gov;Male;Deje
520;Kassandra;Clayworth;kclayworthef@macromedia.com;Female;Libertad
521;August;Strut;astruteg@berkeley.edu;Male;Yamethin
522;Roda;Eyckelbeck;reyckelbeckeh@live.com;Female;Gyigang
523;Florinda;Severn;fsevernei@bravesites.com;Female;Delong
524;Graeme;Falloon;gfalloonej@github.io;Male;San Javier
525;Hilary;Doodney;hdoodneyek@ft.com;Female;Sâmraông
526;Helenka;Hamor;hhamorel@jigsy.com;Female;Clogherhead
527;Hersch;Rosendahl;hrosendahlem@sogou.com;Male;Záhorovice
528;Roslyn;Hoffner;rhoffneren@engadget.com;Female;Gulu
529;Alfy;Longmuir;alongmuireo@histats.com;Male;Fiditi
530;Dicky;Castane;dcastaneep@usgs.gov;Male;Września
531;Salim;Rittmeyer;srittmeyereq@mlb.com;Male;Pingyang
532;Jimmie;Coppenhall;jcoppenhaller@com.com;Male;Atar
533;Cally;Gilligan;cgilliganes@foxnews.com;Female;Plagiári
534;Murry;Collete;mcolleteet@theatlantic.com;Male;Mandala
535;Charlot;Stannah;cstannaheu@prweb.com;Female;Kildare
536;Oren;Catteroll;ocatterollev@pinterest.com;Male;Yerba Buena
537;Thorstein;Petschel;tpetschelew@cdc.gov;Male;Zahvizdya
538;Kevin;Duigan;kduiganex@goo.ne.jp;Male;Foxton
539;Sal;Ronchka;sronchkaey@dailymotion.com;Male;Clarin
540;Lynnett;Stallebrass;lstallebrassez@squidoo.com;Female;Biała
541;Giordano;Byer;gbyerf0@fema.gov;Male;Nancy
542;Adan;Thorald;athoraldf1@umn.edu;Female;Barras
543;Judie;Fryd;jfrydf2@mapquest.com;Female;Xinxing
544;Caressa;Lowseley;clowseleyf3@weather.com;Female;Pekuwon
545;Karalee;Priver;kpriverf4@foxnews.com;Female;Xinfeng
546;Earle;Keeves;ekeevesf5@opera.com;Male;Thị Trấn Kim Tân
547;Rafael;Syncke;rsynckef6@vinaora.com;Male;Yavne
548;Maggy;Capener;mcapenerf7@etsy.com;Female;Khorlovo
549;Cord;Erangey;cerangeyf8@wiley.com;Male;‘Aqrah
550;Zia;Purvey;zpurveyf9@infoseek.co.jp;Female;Wuxue Shi
551;Alva;Coverdill;acoverdillfa@fema.gov;Male;Rîşcani
552;Alasteir;Heavens;aheavensfb@accuweather.com;Male;Garahaji
553;Huberto;Keesman;hkeesmanfc@washingtonpost.com;Male;Bweyogerere
554;Chrisy;Mattusevich;cmattusevichfd@biblegateway.com;Male;San Carlos
555;Marga;Hebbard;mhebbardfe@fastcompany.com;Female;Tharyarwady
556;Ulrica;Caudell;ucaudellff@cornell.edu;Female;Povenets
557;Consuelo;Secretan;csecretanfg@hexun.com;Female;Puerto Francisco de Orellana
558;Tamarah;Dallewater;tdallewaterfh@youtu.be;Female;Stockholm
559;Lillis;Kadar;lkadarfi@yahoo.com;Female;Świnna
560;Giacobo;Cobbledick;gcobbledickfj@tamu.edu;Male;Cangchang
561;Helge;Bosson;hbossonfk@wisc.edu;Female;Jinhaihu
562;Rab;Downham;rdownhamfl@intel.com;Male;Pirapozinho
563;Robb;Pellett;rpellettfm@examiner.com;Male;Apodi
564;Gwenore;Ellif;gelliffn@army.mil;Female;Wangjing
565;Sonny;Olivari;solivarifo@digg.com;Male;Rufino
566;Madison;Hatherill;mhatherillfp@java.com;Male;Citasuk
567;Dalston;Plante;dplantefq@pbs.org;Male;Pangantocan
568;Madalyn;Friedlos;mfriedlosfr@surveymonkey.com;Female;Riberalta
569;Corbett;Gress;cgressfs@acquirethisname.com;Male;Nyrob
570;Collen;Goodhay;cgoodhayft@free.fr;Female;Donggang
571;Nessy;Dring;ndringfu@yellowbook.com;Female;Changfa
572;Davon;MacGaughy;dmacgaughyfv@github.com;Male;Évlalo
573;Ellerey;Onraet;eonraetfw@ucoz.com;Male;Dvinskoy
574;Janessa;Janas;jjanasfx@japanpost.jp;Female;Yishi
575;Collie;Astbury;castburyfy@ocn.ne.jp;Female;Krajan Menggare
576;Alix;Mochar;amocharfz@odnoklassniki.ru;Male;Kongjiang
577;Lorine;Karchowski;lkarchowskig0@nbcnews.com;Female;Zhukovskiy
578;Skye;Ferrarello;sferrarellog1@wiley.com;Male;Caiyuan
579;Munmro;Extal;mextalg2@joomla.org;Male;Menol
580;Nobe;Dallywater;ndallywaterg3@go.com;Male;Xianghu
581;Cory;Haldenby;chaldenbyg4@bluehost.com;Female;El Rosario
582;Sumner;Larner;slarnerg5@cam.ac.uk;Male;Cigadung
583;Bridie;Boulger;bboulgerg6@sciencedirect.com;Female;Lamalewar
584;Raimondo;Fierro;rfierrog7@feedburner.com;Male;Sawin
585;Blanche;Obray;bobrayg8@mediafire.com;Female;Gialo
586;Dean;Sherer;dshererg9@moonfruit.com;Male;Kainan
587;Ennis;Bisacre;ebisacrega@myspace.com;Male;Tobelo
588;Conney;Pattrick;cpattrickgb@histats.com;Male;Darungan
589;Timothea;Carlaw;tcarlawgc@youtu.be;Female;Strawczyn
590;Albert;Louch;alouchgd@state.tx.us;Male;Mętków
591;Obed;Ubank;oubankge@nydailynews.com;Male;Budapest
592;Jamill;Buckby;jbuckbygf@eepurl.com;Male;Panglanjan
593;Price;Wadesworth;pwadesworthgg@typepad.com;Male;Sokol
594;Yvon;Puddefoot;ypuddefootgh@163.com;Male;Grudë-Fushë
595;Michael;De Luna;mdelunagi@slate.com;Male;Neundeut
596;Slade;Conichie;sconichiegj@mac.com;Male;Sukasari
597;Christoph;Reddihough;creddihoughgk@paypal.com;Male;Wuyang
598;Bren;Kellogg;bkellogggl@theguardian.com;Male;Canela
599;Wesley;Tupman;wtupmangm@prlog.org;Male;Cipancur
600;Sharla;Andrichuk;sandrichukgn@youtube.com;Female;Shangyanzhuang
601;Ines;Morkham;imorkhamgo@mapquest.com;Female;Tutnae
602;Bab;Overell;boverellgp@free.fr;Female;Dziadkowice
603;Zondra;Cunde;zcundegq@vimeo.com;Female;Luhačovice
604;Hewe;Stendall;hstendallgr@infoseek.co.jp;Male;Surkhet
605;Jeremie;Trippick;jtrippickgs@theatlantic.com;Male;Chlewiska
606;Elyse;Limer;elimergt@smugmug.com;Female;Micheng
607;Baillie;Kaygill;bkaygillgu@google.pl;Male;Landi Kotal
608;Kort;Ruzicka;kruzickagv@squidoo.com;Male;Al Ḩayfah
609;Greta;Josey;gjoseygw@nsw.gov.au;Female;Hrazdan
610;Julienne;Willerstone;jwillerstonegx@rambler.ru;Female;Al Mawşil al Jadīdah
611;Lem;Karby;lkarbygy@cnet.com;Male;Elimäki
612;Roger;Swires;rswiresgz@blogger.com;Male;Austin
613;Danice;Ratledge;dratledgeh0@miibeian.gov.cn;Female;Talangbetutu
614;Gilles;Bunker;gbunkerh1@slate.com;Male;Otrado-Kubanskoye
615;Vikky;Sawfoot;vsawfooth2@mayoclinic.com;Female;Nanxi
616;Christen;Jiracek;cjiracekh3@sakura.ne.jp;Female;Brzyska
617;Valeda;Crapper;vcrapperh4@123-reg.co.uk;Female;Düsseldorf
618;Shawn;Wildman;swildmanh5@cisco.com;Female;Zliv
619;Corenda;Rosbrough;crosbroughh6@google.pl;Female;Letlhakane
620;Kerwin;Bleythin;kbleythinh7@earthlink.net;Male;Mayuan
621;Raphael;Lorden;rlordenh8@qq.com;Male;Wanagiri
622;Frazier;Dorton;fdortonh9@cyberchimps.com;Male;Zipárion
623;Tabby;Matthessen;tmatthessenha@google.de;Female;Brazzaville
624;Suzanna;Payler;spaylerhb@biglobe.ne.jp;Female;Ketanggungan
625;Mervin;Naptin;mnaptinhc@washingtonpost.com;Male;Mengla
626;Kaine;Bebbington;kbebbingtonhd@comcast.net;Male;Zhushan Chengguanzhen
627;Harrie;McBryde;hmcbrydehe@discovery.com;Female;Dubti
628;Gene;Tomaini;gtomainihf@go.com;Male;Jieshi
629;Kermie;Daley;kdaleyhg@weebly.com;Male;Bohumín
630;Gunilla;Sugg;gsugghh@marketwatch.com;Female;Masoyila
631;Cam;Foulkes;cfoulkeshi@unesco.org;Female;Campamento
632;Chrisse;Antognetti;cantognettihj@goo.gl;Male;San Diego
633;Stella;Esch;seschhk@nps.gov;Female;Xiangyang
634;Maurise;Kineton;mkinetonhl@va.gov;Male;Zhen’an
635;Lodovico;Ricarde;lricardehm@paypal.com;Male;Embu
636;Kirstin;Cosyns;kcosynshn@discuz.net;Female;Kangshan
637;Blaine;Heninghem;bheninghemho@hugedomains.com;Male;Matiguás
638;Ardelis;Sarfass;asarfasshp@phoca.cz;Female;Pontevedra
639;Samuele;Glanton;sglantonhq@oaic.gov.au;Male;Kandahār
640;Gar;Wisniewski;gwisniewskihr@dropbox.com;Male;Maomiaoji
641;Olwen;Chark;ocharkhs@theguardian.com;Female;Arnage
642;Scottie;Beechcraft;sbeechcraftht@joomla.org;Male;Xihe
643;Willi;Grimster;wgrimsterhu@ezinearticles.com;Female;Lemenhe
644;Bethina;Breydin;bbreydinhv@huffingtonpost.com;Female;Sabaneta
645;Berkeley;Rubinovici;brubinovicihw@livejournal.com;Male;Komoro
646;Nataniel;Kemetz;nkemetzhx@psu.edu;Male;Stockholm
647;Ibby;Rimbault;irimbaulthy@huffingtonpost.com;Female;Dortmund
648;Cristen;Fedder;cfedderhz@pagesperso-orange.fr;Female;Banjar Tegal Belodan
649;Courtney;Akers;cakersi0@flavors.me;Male;Zaragoza
650;Libbi;Orbon;lorboni1@mlb.com;Female;Sebasang
651;Sheilakathryn;Cattrell;scattrelli2@digg.com;Female;Askim
652;Karole;Rosetti;krosettii3@businesswire.com;Female;Kitale
653;Eloisa;Yankin;eyankini4@dailymotion.com;Female;Tumcon Ilawod
654;Constancy;Woolsey;cwoolseyi5@storify.com;Female;San Lorenzo
655;Shep;McGenn;smcgenni6@google.co.jp;Male;Huaishu
656;Herc;Oxtiby;hoxtibyi7@twitter.com;Male;Faīẕābād
657;Efrem;Gyse;egysei8@tumblr.com;Male;Kokstad
658;Beale;Stendall;bstendalli9@dropbox.com;Male;Zitong
659;Ainslie;Vipan;avipania@google.com;Female;Barbacena
660;Jacquenette;Bewick;jbewickib@linkedin.com;Female;Koa
661;Wyndham;Vinecombe;wvinecombeic@webeden.co.uk;Male;Shiban
662;Gabriellia;Linck;glinckid@pbs.org;Female;Krasnaya Gorka
663;Bonni;Stone Fewings;bstonefewingsie@artisteer.com;Female;Kalangsari
664;Bern;Blackaller;bblackallerif@blogger.com;Male;Shuangmiaojie
665;Prinz;Moncrefe;pmoncrefeig@reuters.com;Male;Heling
666;Bambie;Guerreru;bguerreruih@php.net;Female;San Quintin
667;Cassondra;Lant;clantii@squidoo.com;Female;Cascavel
668;Janet;Rackstraw;jrackstrawij@typepad.com;Female;Briceni
669;Sarajane;Oxer;soxerik@msn.com;Female;Yablonovskiy
670;Jeanna;Dooly;jdoolyil@behance.net;Female;Kremidivka
671;Efrem;Thick;ethickim@go.com;Male;Sida
672;Lilian;Poolman;lpoolmanin@cyberchimps.com;Female;Sim
673;Gael;Peris;gperisio@barnesandnoble.com;Female;Guardizela
674;Lynsey;Paulillo;lpaulilloip@eepurl.com;Female;Chisong
675;Collette;Attfield;cattfieldiq@tripod.com;Female;Calibutbut
676;Ileane;Longcaster;ilongcasterir@hatena.ne.jp;Female;Xiacang
677;Sofia;Hammarberg;shammarbergis@g.co;Female;Hrvace
678;April;Bachs;abachsit@photobucket.com;Female;East Migpulao
679;Morna;Meake;mmeakeiu@drupal.org;Female;Kortowo
680;Frederique;Hearons;fhearonsiv@moonfruit.com;Female;Vannes
681;Colver;Powter;cpowteriw@psu.edu;Male;Ladoeiro
682;Ruddy;Mitford;rmitfordix@ocn.ne.jp;Male;Ning’er
683;Arden;Jozefowicz;ajozefowicziy@liveinternet.ru;Female;Pont-Audemer
684;Forster;Driuzzi;fdriuzziiz@ask.com;Male;Guadalupe
685;Herschel;Hartridge;hhartridgej0@hao123.com;Male;Las Varillas
686;Kirsteni;Slark;kslarkj1@globo.com;Female;Igurusi
687;Slade;Bielefeld;sbielefeldj2@friendfeed.com;Male;Jagong
688;Hayden;Zimmermeister;hzimmermeisterj3@purevolume.com;Male;Ziyang Chengguanzhen
689;Beatrice;Kelloch;bkellochj4@irs.gov;Female;At Taḩālif
690;Amargo;Loghan;aloghanj5@discuz.net;Female;Shichuan
691;Evangeline;Babbs;ebabbsj6@redcross.org;Female;Klagenfurt am Wörthersee
692;Wait;Pirson;wpirsonj7@yolasite.com;Male;Espinillo
693;Town;Westmarland;twestmarlandj8@mac.com;Male;Sangoleng
694;Aili;Cestard;acestardj9@liveinternet.ru;Female;Cinyasag
695;Linn;Glover;lgloverja@java.com;Male;Tongtuan
696;Wood;Hartburn;whartburnjb@tumblr.com;Male;Igunga
697;Tobin;Cheverell;tcheverelljc@youtu.be;Male;Tân Châu
698;Zak;Goom;zgoomjd@slate.com;Male;Santol
699;Kaitlin;Prestige;kprestigeje@yellowpages.com;Female;Libiąż
700;Alaric;Neville;anevillejf@naver.com;Male;Rio Covo
701;Philip;Tuiller;ptuillerjg@illinois.edu;Male;Batangan
702;Joyan;Jellman;jjellmanjh@europa.eu;Female;Bebedouro
703;Naomi;Schwant;nschwantji@t.co;Female;Futian
704;Trisha;Indgs;tindgsjj@symantec.com;Female;Longmen
705;Bryant;Shewery;bsheweryjk@mysql.com;Male;Capalayan
706;Bancroft;Thew;bthewjl@nymag.com;Male;Agdzhabedy
707;Wilfred;Mettericke;wmetterickejm@blog.com;Male;Huandiqiao
708;Trent;Gilford;tgilfordjn@networkadvertising.org;Male;Svedala
709;Kerrie;Gall;kgalljo@networkadvertising.org;Female;Shebunino
710;Carree;Algeo;calgeojp@pinterest.com;Female;Mbandaka
711;Levin;Steer;lsteerjq@census.gov;Male;Vaasa
712;Gilles;Baal;gbaaljr@census.gov;Male;Baisha
713;Annalee;Farington;afaringtonjs@ebay.com;Female;Sinyavino
714;Morie;Lenaghen;mlenaghenjt@linkedin.com;Male;Chengtian
715;Art;Matissoff;amatissoffju@newsvine.com;Male;Xiangdian
716;Cort;Duguid;cduguidjv@w3.org;Male;Kaesŏng
717;Benson;Allred;ballredjw@thetimes.co.uk;Male;Agua Buena
718;Jereme;Gisbye;jgisbyejx@skyrock.com;Male;Kaulon
719;Astrix;Carrack;acarrackjy@livejournal.com;Female;Tanjungbahagia
720;Wyatan;Fussen;wfussenjz@craigslist.org;Male;Kuzhuping
721;Betti;Rhoades;brhoadesk0@shutterfly.com;Female;Ilo
722;Harp;Cardon;hcardonk1@google.nl;Male;Kalávryta
723;Ronald;Hyman;rhymank2@europa.eu;Male;Aix-en-Provence
724;Darsie;Farthin;dfarthink3@foxnews.com;Female;Świecie
725;Angus;Rikel;arikelk4@google.pl;Male;Kuala Pilah
726;Marven;Gregg;mgreggk5@wikispaces.com;Male;Naftalan
727;Wadsworth;Scutter;wscutterk6@mediafire.com;Male;Longshe
728;Mandy;Sapauton;msapautonk7@pbs.org;Female;Retiro
729;Arnold;Ivankovic;aivankovick8@ezinearticles.com;Male;Heredia
730;Stu;Regan;sregank9@deliciousdays.com;Male;Sukadana Selatan
731;Karlan;Kersey;kkerseyka@trellian.com;Male;Mikulintsy
732;Earle;Gallacher;egallacherkb@marketwatch.com;Male;Enniskerry
733;Dianemarie;Udall;dudallkc@weibo.com;Female;Bairro dos Marinheiros
734;Evyn;Haslin;ehaslinkd@cisco.com;Male;Zábřeh
735;Carlo;Berisford;cberisfordke@shinystat.com;Male;San Agustín
736;Shurlocke;Lamball;slamballkf@weibo.com;Male;Loma
737;Clemence;Skypp;cskyppkg@usgs.gov;Female;Mancilang
738;Pryce;Haspineall;phaspineallkh@fda.gov;Male;Dębowiec
739;Laurella;McDarmid;lmcdarmidki@amazon.co.uk;Female;Agenebode
740;Jeremiah;Poore;jpoorekj@slideshare.net;Male;Huangge
741;Sigfried;Lamburn;slamburnkk@wordpress.org;Male;Skalat
742;Filberte;Kerby;fkerbykl@people.com.cn;Male;Okigwi
743;Marne;Wreiford;mwreifordkm@prlog.org;Female;Honolulu
744;Janek;Martin;jmartinkn@over-blog.com;Male;Utrecht (stad)
745;Mary;Duchant;mduchantko@php.net;Female;Verkhovyna
746;Britteny;Seeler;bseelerkp@tmall.com;Female;Nowy Tomyśl
747;Shelley;Danielkiewicz;sdanielkiewiczkq@shop-pro.jp;Female;Velykyy Burluk
748;Syd;Meek;smeekkr@barnesandnoble.com;Male;Radā‘
749;Elisa;Dodsley;edodsleyks@sciencedirect.com;Female;eMbalenhle
750;Tuck;Mockford;tmockfordkt@123-reg.co.uk;Male;Krajan Gajihan
751;Atlanta;Duckworth;aduckworthku@omniture.com;Female;Saint-Lô
752;Gayle;Eltringham;geltringhamkv@vimeo.com;Male;Quinchía
753;Marcile;Cape;mcapekw@jalbum.net;Female;Guijalo
754;Shannen;Wakeman;swakemankx@rambler.ru;Female;Shuangjiang
755;Lazar;Sharratt;lsharrattky@parallels.com;Male;Nankou
756;Yettie;Reoch;yreochkz@weather.com;Female;Devesa
757;Sean;Beckenham;sbeckenhaml0@icq.com;Female;Na Yong
758;Donelle;Kew;dkewl1@princeton.edu;Female;Berlin
759;Jacqueline;Moorwood;jmoorwoodl2@ted.com;Female;Tanbuqiao
760;Doralynne;Desorts;ddesortsl3@discovery.com;Female;San Pa Tong
761;Sylvan;Rosenstiel;srosenstiell4@oracle.com;Male;Santiaoshi
762;Junina;Gehring;jgehringl5@ow.ly;Female;Ilongero
763;Peter;Phibb;pphibbl6@forbes.com;Male;Tobruk
764;Patric;Bumpass;pbumpassl7@yelp.com;Male;Vybor
765;Aarika;Le Lievre;alelievrel8@hugedomains.com;Female;Uinskoye
766;Cristal;Hastwell;chastwelll9@aol.com;Female;Pointe-à-Pitre
767;Gratia;Peggrem;gpeggremla@unesco.org;Female;Ardee
768;Sissie;Annies;sannieslb@timesonline.co.uk;Female;Maradi
769;Guss;Statham;gstathamlc@dagondesign.com;Male;Guadalupe Victoria
770;Rosco;Mewe;rmeweld@sciencedirect.com;Male;Rashaant
771;Mariska;Moogan;mmooganle@furl.net;Female;Algarvia
772;Jamaal;MacGillacolm;jmacgillacolmlf@shop-pro.jp;Male;Santa Lucía Cotzumalguapa
773;Auberon;Fines;afineslg@dmoz.org;Male;Shanghu
774;Dickie;Coppo;dcoppolh@booking.com;Male;Lahan Sai
775;Jasen;Dorey;jdoreyli@java.com;Male;Resplendor
776;Sandy;Brimblecombe;sbrimblecombelj@latimes.com;Male;Hoboksar
777;Hollis;Goshawk;hgoshawklk@ebay.co.uk;Male;Yangiobod
778;Andrew;Boadby;aboadbyll@buzzfeed.com;Male;Momil
779;Dorry;Argile;dargilelm@webmd.com;Female;Calango
780;Jobey;Guillford;jguillfordln@example.com;Female;Arapongas
781;Audra;Ackerman;aackermanlo@ifeng.com;Female;Golovchino
782;Nikita;Stillgoe;nstillgoelp@washington.edu;Male;Cikomara
783;Terza;Jayme;tjaymelq@soundcloud.com;Female;Káto Glikóvrisi
784;Ky;Burchatt;kburchattlr@pen.io;Male;Mangseng
785;Douglass;Tremayle;dtremaylels@blinklist.com;Male;Anxiang
786;Celle;Vasyunkin;cvasyunkinlt@un.org;Female;Molsheim
787;Ebeneser;Crews;ecrewslu@mit.edu;Male;Lovas
788;Arne;Caddick;acaddicklv@techcrunch.com;Male;Sinop
789;Mair;Dineges;mdinegeslw@theguardian.com;Female;Bamiantong
790;Joelynn;Monkleigh;jmonkleighlx@mapy.cz;Female;Thị Trấn Than Uyên
791;Wright;McCullock;wmccullockly@symantec.com;Male;Dschang
792;Sheree;Belsey;sbelseylz@slate.com;Female;Tizgane
793;Aldis;MacCostigan;amaccostiganm0@epa.gov;Male;Nor Yerznka
794;Sal;Sibbe;ssibbem1@xinhuanet.com;Male;Na Chaluai
795;Ertha;Pateman;epatemanm2@alibaba.com;Female;Sekirnik
796;Barbe;Mantram;bmantramm3@jugem.jp;Female;Liuyuan
797;Tamma;O'Currane;tocurranem4@ibm.com;Female;‘Eilabun
798;Victoir;Atwell;vatwellm5@zimbio.com;Male;Tucano
799;Trace;Ollerearnshaw;tollerearnshawm6@typepad.com;Male;Sumbersari Wetan
800;Susana;Ashleigh;sashleighm7@slashdot.org;Female;Frederico Westphalen
801;Baldwin;Domnin;bdomninm8@timesonline.co.uk;Male;Kaeng Khro
802;Gabriellia;Hibbart;ghibbartm9@shareasale.com;Female;Kasaoka
803;Nicola;Guilliatt;nguilliattma@cnbc.com;Female;Nevyts’ke
804;Christian;Elfe;celfemb@twitpic.com;Male;Navatat
805;Janessa;Marle;jmarlemc@addthis.com;Female;Barroso
806;Heda;Driussi;hdriussimd@chronoengine.com;Female;Sezimovo Ústí
807;Hillyer;Frick;hfrickme@oracle.com;Male;Ban Mai
808;Cort;Mullord;cmullordmf@nifty.com;Male;Watulumbung
809;Katlin;Tarney;ktarneymg@friendfeed.com;Female;Yumaguzino
810;Imogen;Cheshire;icheshiremh@t.co;Female;Bonoua
811;Freemon;Lindenbaum;flindenbaummi@toplist.cz;Male;Shijia
812;Baird;Frankiss;bfrankissmj@cdbaby.com;Male;Mitsukaidō
813;Taite;Fairbridge;tfairbridgemk@psu.edu;Male;Ojiya
814;Julian;Collister;jcollisterml@digg.com;Male;Dordrecht
815;Bear;Hellyer;bhellyermm@china.com.cn;Male;Kungur
816;Artie;Tarburn;atarburnmn@craigslist.org;Male;Göteborg
817;Maryjo;Bodsworth;mbodsworthmo@engadget.com;Female;Marseille
818;Joellyn;Mish;jmishmp@addtoany.com;Female;Bugana
819;Viviene;Gingle;vginglemq@cloudflare.com;Female;Guanmian
820;Lilli;Farlambe;lfarlambemr@plala.or.jp;Female;Bangkle
821;Brandon;Navarre;bnavarrems@arstechnica.com;Male;Borås
822;Clemmie;Ozelton;cozeltonmt@posterous.com;Female;Unaizah
823;Giorgia;Asson;gassonmu@flavors.me;Female;Ksour Essaf
824;Meaghan;Reay;mreaymv@timesonline.co.uk;Female;Pasirpanjang
825;Diane;Abramski;dabramskimw@ucla.edu;Female;Sattahip
826;Eddy;Mullane;emullanemx@mayoclinic.com;Male;Redinha
827;Barrie;Harral;bharralmy@theatlantic.com;Male;Presidente Venceslau
828;Axe;Gronou;agronoumz@yale.edu;Male;Hässleholm
829;Edithe;Noto;enoton0@ehow.com;Female;Pôsto Fiscal Rolim de Moura
830;Terrill;Kinglesyd;tkinglesydn1@cloudflare.com;Male;Xiaojiang
831;Kearney;Steere;ksteeren2@house.gov;Male;Angoram
832;Janeta;Kalkhoven;jkalkhovenn3@unesco.org;Female;Kertosari
833;Adelheid;Graffin;agraffinn4@discuz.net;Female;Ouro Branco
834;Floyd;Arber;farbern5@jimdo.com;Male;Seke
835;Lindsy;Earlam;learlamn6@hc360.com;Female;Carvalhal
836;Chicky;Yashaev;cyashaevn7@prlog.org;Male;Velké Hoštice
837;Nertie;Leaf;nleafn8@istockphoto.com;Female;La Molina
838;Tobe;Cheyenne;tcheyennen9@google.com.br;Male;Xinhuang
839;Kalindi;Weerdenburg;kweerdenburgna@jiathis.com;Female;Andovoranto
840;Terry;Dinsdale;tdinsdalenb@google.fr;Female;Werasari
841;Malia;Boagey;mboageync@myspace.com;Female;Krutaya Gorka
842;Deanna;De Ruggiero;dderuggierond@phoca.cz;Female;Luozhuang
843;Devan;Priddis;dpriddisne@nydailynews.com;Female;Sahnaiya
844;Maureene;Brunker;mbrunkernf@wired.com;Female;Oyonnax
845;Yurik;Brabban;ybrabbanng@joomla.org;Male;Dobre
846;Ricard;Erangy;rerangynh@freewebs.com;Male;Stockholm
847;Paulina;Ducarel;pducarelni@zimbio.com;Female;Chaihu
848;Raeann;Gallacher;rgallachernj@samsung.com;Female;Sorodot
849;Chris;Diben;cdibennk@whitehouse.gov;Male;Magapit
850;Tory;Babbidge;tbabbidgenl@timesonline.co.uk;Female;Nor Yerznka
851;Lyndel;Simmill;lsimmillnm@ox.ac.uk;Female;Paris 09
852;Diann;Wahncke;dwahnckenn@aboutads.info;Female;Býšť
853;Ynez;Kelso;ykelsono@google.pl;Female;Gaotai
854;Laird;Loughman;lloughmannp@yelp.com;Male;Carcavelos
855;Taber;Cowsby;tcowsbynq@wikipedia.org;Male;Jiangti
856;Wynny;Hubbis;whubbisnr@webmd.com;Female;Da-an Sur
857;Cointon;Jeacocke;cjeacockens@nbcnews.com;Male;Xaçmaz
858;Adan;McCromley;amccromleynt@php.net;Male;Bieto
859;Samuele;Sans;ssansnu@msu.edu;Male;Akriní
860;Rolph;Tubbs;rtubbsnv@loc.gov;Male;Loreto
861;Leanna;Behling;lbehlingnw@archive.org;Female;Tibiri
862;Taber;Ponceford;tponcefordnx@nhs.uk;Male;Kazinka
863;Marcella;Runnalls;mrunnallsny@parallels.com;Female;Szczecin
864;Katuscha;Overstreet;koverstreetnz@smugmug.com;Female;Albacete
865;Larine;Blenkinsop;lblenkinsopo0@ibm.com;Female;Kuripan
866;Chandler;Kopje;ckopjeo1@linkedin.com;Male;Okanagan
867;Trenton;Raeside;traesideo2@mayoclinic.com;Male;Qitao
868;Vin;Veschambes;vveschambeso3@answers.com;Male;Kačanik
869;Clarie;Spikins;cspikinso4@bloglovin.com;Female;Bang Sai
870;Porty;McCromley;pmccromleyo5@geocities.com;Male;Longvic
871;Leeann;Moncaster;lmoncastero6@tuttocitta.it;Female;Yangtan
872;Hervey;Hayball;hhayballo7@dion.ne.jp;Male;Desakolot
873;Leroi;Rizzillo;lrizzilloo8@ihg.com;Male;Llanera
874;Ula;Probet;uprobeto9@biblegateway.com;Female;Saraqinishtë
875;Olivette;Callway;ocallwayoa@unblog.fr;Female;Caluire-et-Cuire
876;Charley;Kiraly;ckiralyob@sitemeter.com;Male;Los Santos
877;Bowie;Leinweber;bleinweberoc@princeton.edu;Male;Ribnica na Pohorju
878;Francisca;Domanski;fdomanskiod@linkedin.com;Female;Horta
879;Glyn;Rowntree;growntreeoe@springer.com;Male;Novoshakhtinskiy
880;Phillipe;Langfat;plangfatof@accuweather.com;Male;Wanasari Baleran
881;Arlena;Thouless;athoulessog@blog.com;Female;Le Puy-en-Velay
882;Nadean;Virr;nvirroh@dailymotion.com;Female;Gambarjati
883;Alayne;Trenfield;atrenfieldoi@posterous.com;Female;Santo Domingo
884;Elisabeth;Roark;eroarkoj@yahoo.co.jp;Female;Vylkove
885;Kenn;O'Downe;kodowneok@statcounter.com;Male;Mayingzhuang
886;Zed;Tollady;ztolladyol@discovery.com;Male;Bagacay
887;Rickert;Beckford;rbeckfordom@icio.us;Male;Bajo
888;Cy;Twelves;ctwelveson@dedecms.com;Male;Janes
889;Sherline;Southcott;ssouthcottoo@nba.com;Female;Sult
890;Welsh;Methven;wmethvenop@slate.com;Male;Sollebrunn
891;Whitaker;Lautie;wlautieoq@shareasale.com;Male;Impalutao
892;Malcolm;Radmer;mradmeror@so-net.ne.jp;Male;Saramech
893;Rodi;Pyper;rpyperos@bizjournals.com;Female;Tabūk
894;Jarib;Skipsey;jskipseyot@rakuten.co.jp;Male;Maturín
895;Karalee;Branni;kbranniou@guardian.co.uk;Female;Nambalan
896;Marni;Lorrie;mlorrieov@paypal.com;Female;Shreveport
897;Jacenta;Jotcham;jjotchamow@youtube.com;Female;Ciudad Arce
898;Karissa;Hammerman;khammermanox@bandcamp.com;Female;Bálsamo Oriental
899;Horatio;Preator;hpreatoroy@bravesites.com;Male;Şaḩam
900;Germain;Perassi;gperassioz@github.io;Male;Pinagsibaan
901;Arlie;Spring;aspringp0@clickbank.net;Female;Ikoma
902;Roseline;Nijssen;rnijssenp1@tripadvisor.com;Female;Halayhayin
903;Emmanuel;Petrozzi;epetrozzip2@google.nl;Male;Curuzú Cuatiá
904;Karlik;Halliday;khallidayp3@github.io;Male;Taipa
905;Lucila;Marnane;lmarnanep4@forbes.com;Female;Amsterdam Westpoort
906;Arlyn;Dewire;adewirep5@cnbc.com;Female;Sindang
907;Arabele;Shann;ashannp6@boston.com;Female;Ilmajoki
908;Clementius;Grevile;cgrevilep7@ask.com;Male;Yopal
909;Ximenes;Jesse;xjessep8@123-reg.co.uk;Male;Ipoh
910;Bel;Dutch;bdutchp9@ow.ly;Female;Xubao
911;Archie;Atherley;aatherleypa@soup.io;Male;Crespo
912;Jilly;Sellens;jsellenspb@mediafire.com;Female;Quintinha
913;Seana;Garland;sgarlandpc@dion.ne.jp;Female;Koz’modem’yansk
914;Mikaela;Brittle;mbrittlepd@yelp.com;Female;Fteliá
915;Conway;Georgiev;cgeorgievpe@fda.gov;Male;Tyler
916;Timothee;Shutte;tshuttepf@scientificamerican.com;Male;Manuel Cavazos Lerma
917;Matty;Willoway;mwillowaypg@live.com;Male;Shahe
918;Danyette;Slimon;dslimonph@constantcontact.com;Female;Anmore
919;Oswell;Whapples;owhapplespi@theglobeandmail.com;Male;Purorejo
920;Edwina;Brenard;ebrenardpj@blogtalkradio.com;Female;Cesson-Sévigné
921;Delores;Benedick;dbenedickpk@discuz.net;Female;Radom
922;Burt;Blaase;bblaasepl@gizmodo.com;Male;Chợ Gạo
923;Hillard;Iacobetto;hiacobettopm@vkontakte.ru;Male;Biliran
924;Jephthah;Ivan;jivanpn@patch.com;Male;Slavkov u Brna
925;Courtnay;Speir;cspeirpo@pen.io;Male;Kalix
926;Anthia;Tunnoch;atunnochpp@jugem.jp;Female;Grand Rapids
927;Rennie;Pawle;rpawlepq@accuweather.com;Female;Antabamba
928;Burnaby;Nares;bnarespr@tumblr.com;Male;Ternopil’
929;Kippie;Atkinson;katkinsonps@ted.com;Female;Maţāy
930;Dorelle;Bleasby;dbleasbypt@indiegogo.com;Female;Brudzeń Duży
931;Dilly;Lober;dloberpu@accuweather.com;Male;Sūq Sibāḩ
932;Lonnie;Sterke;lsterkepv@oracle.com;Male;Hongcheng
933;Dael;Fairfull;dfairfullpw@wsj.com;Male;Eišiškės
934;Elyse;Howgego;ehowgegopx@netscape.com;Female;Beijie
935;Judie;Burke;jburkepy@chron.com;Female;Choya
936;Nathalia;Tanti;ntantipz@umn.edu;Female;Vanimo
937;Roselin;Le Franc;rlefrancq0@macromedia.com;Female;Lijiapu
938;Trefor;Clandillon;tclandillonq1@arstechnica.com;Male;Liushui
939;Neill;Halpine;nhalpineq2@nydailynews.com;Male;Daphu
940;Marcella;Elsmore;melsmoreq3@chron.com;Female;Tougan
941;Nikita;Broggelli;nbroggelliq4@pcworld.com;Male;Fenghuo
942;Madeline;Ruegg;mrueggq5@google.it;Female;Sidorejo
943;Selle;Balma;sbalmaq6@globo.com;Female;Gaoleshan
944;Devon;Annis;dannisq7@e-recht24.de;Female;Galamares
945;Birgitta;Swynfen;bswynfenq8@samsung.com;Female;Famatina
946;Sharon;Venes;svenesq9@huffingtonpost.com;Female;Abucayan
947;Rich;Palleske;rpalleskeqa@cisco.com;Male;Atlanta
948;Laureen;Haborn;lhabornqb@skyrock.com;Female;Boussé
949;Christi;Thraves;cthravesqc@microsoft.com;Female;Badagry
950;Lianna;Hamon;lhamonqd@amazon.de;Female;Junqueiro
951;Thadeus;Wilcockes;twilcockesqe@auda.org.au;Male;Pavino
952;Kirbie;Kuhnt;kkuhntqf@aol.com;Female;Berbek
953;Jonah;Habbershon;jhabbershonqg@google.com.br;Male;Araçuaí
954;Gasper;Bausor;gbausorqh@mit.edu;Male;Viña del Mar
955;Noni;Wadelin;nwadelinqi@cdbaby.com;Female;Zagnitkiv
956;Palmer;Berisford;pberisfordqj@constantcontact.com;Male;Ratenggoji
957;Aubert;MacNulty;amacnultyqk@sciencedaily.com;Male;Dzhubga
958;Lindsay;Glencross;lglencrossql@ow.ly;Male;Hongsihu
959;Bertha;Zarfai;bzarfaiqm@mlb.com;Female;Kalodu
960;Robinet;Olivier;rolivierqn@prweb.com;Male;Tuquan
961;Sutherland;Mynett;smynettqo@globo.com;Male;Liugou
962;Jerrilyn;Antunez;jantunezqp@amazon.co.uk;Female;Bago
963;Andy;Treneer;atreneerqq@discovery.com;Female;Watubuku
964;Lanie;Glynne;lglynneqr@wsj.com;Male;Somita
965;Yetty;Dionis;ydionisqs@mail.ru;Female;Радовиш
966;Stanleigh;Traylen;straylenqt@earthlink.net;Male;Xishan
967;Avrom;Davidman;adavidmanqu@ca.gov;Male;Tālīn
968;Elmo;Dimitru;edimitruqv@sbwire.com;Male;San Carlos de Bariloche
969;Aldin;Toller;atollerqw@usa.gov;Male;Rū-ye Sang
970;Bunny;Masding;bmasdingqx@google.com.au;Female;Ganxi
971;Korney;Maclean;kmacleanqy@themeforest.net;Female;Beutong Ateuh
972;Brynn;Sagar;bsagarqz@surveymonkey.com;Female;Yartsevo
973;Sianna;Duffree;sduffreer0@e-recht24.de;Female;São Paulo de Olivença
974;Noelyn;Depke;ndepker1@wordpress.org;Female;Czarków
975;Buddy;Hollingsby;bhollingsbyr2@unesco.org;Male;Mahekou
976;Forster;Sturt;fsturtr3@xrea.com;Male;Banqiaodian
977;Torre;Reditt;tredittr4@creativecommons.org;Male;Combapata
978;Anselm;Wile;awiler5@census.gov;Male;Domaradz
979;Pennie;Godart;pgodartr6@cbc.ca;Female;Aizi
980;Joyous;Lammenga;jlammengar7@mashable.com;Female;Masaki-chō
981;Dall;Joder;djoderr8@hubpages.com;Male;Fuente de Oro
982;Clementina;Wyborn;cwybornr9@ibm.com;Female;Tungipāra
983;Lay;Kubiak;lkubiakra@princeton.edu;Male;Santiago de Subrrifana
984;Dex;Brahms;dbrahmsrb@newsvine.com;Male;Jarash
985;Dewey;Lomis;dlomisrc@loc.gov;Male;Kadusimbar
986;Josias;Frape;jfraperd@xrea.com;Male;Lancai
987;Cybil;Ivashchenko;civashchenkore@1688.com;Female;Ballymun
988;Florencia;Careswell;fcareswellrf@freewebs.com;Female;Pitanga
989;Clive;Gildea;cgildearg@digg.com;Male;Sumberpinang Satu
990;Stearne;Vockins;svockinsrh@cornell.edu;Male;Bagacay
991;Dayna;Ashley;dashleyri@ted.com;Female;Yushugou
992;Fonsie;Scandrick;fscandrickrj@europa.eu;Male;Grabica
993;Hammad;Sturmey;hsturmeyrk@wisc.edu;Male;Monkayo
994;Catharine;Kitchener;ckitchenerrl@geocities.com;Female;Shenwan
995;Talyah;Wing;twingrm@theatlantic.com;Female;Banjar Pangkungtibah Selatan
996;Emilie;Malarkey;emalarkeyrn@whitehouse.gov;Female;Cambuga
997;Julianne;Ellaman;jellamanro@ftc.gov;Female;Fresnes
998;Creigh;Westbrook;cwestbrookrp@php.net;Male;Arys
999;Elden;Bockmann;ebockmannrq@geocities.com;Male;Salta
1000;Haley;Filoniere;hfiloniererr@google.ru;Male;Kolaka
